{
  "swagger": {
    "entryFile": "./src/startup.ts",
    "outputDirectory": "./src",
    "basePath": "/v1"
  },
  "routes": {
    "entryFile": "./src/startup.ts",
    "routesDir": "./src",
    "basePath": "/v1",
    "middleware": "express"
  }
}